Entering the Tidyverse
…
R Projects are helpful to simplify managing a working directory, and it makes using version control/sharing R projects easier as all the necessary files can be saved and transferred together with very few steps, so if everything is well defined using relative paths a program should run smoothly on any device that downloads that project.

What is git and what is github?

Git is a widely used open source version control software that simplifies the process of monitoring and documenting changes to files. Github is an online service that runs Git in a cloud setting that enables easier collaboration using Git over the internet.

What are the two main differences between a tibble and a data.frame?

Tibbles will automatically only print to fit the page as they assume a dataset is large, and subsetting a tibble will result in a new tibble, as opposed to how subsetting a data frame may create a vector.

Rewrite the following nested function call using baseR’s chaining operator:

arrange(filter(select(as_tibble(iris), starts_with("Petal"), Species), Petal.Length < 1.55), Species)

# A tibble: 37 × 3
   Petal.Length Petal.Width Species
          <dbl>       <dbl> <fct>  
 1          1.4         0.2 setosa 
 2          1.4         0.2 setosa 
 3          1.3         0.2 setosa 
 4          1.5         0.2 setosa 
 5          1.4         0.2 setosa 
 6          1.4         0.3 setosa 
 7          1.5         0.2 setosa 
 8          1.4         0.2 setosa 
 9          1.5         0.1 setosa 
10          1.5         0.2 setosa 
# ℹ 27 more rows
…
For the glass data set, first we read in our data, specifying that it is delimited by commas and adding column names via the read_delim() function.

glass <- read_delim("https://www4.stat.ncsu.edu/~online/datasets/glass.data",delim=",",col_names=c("Id","RI","Na","Mg","Al","Si","K","Ca","Ba","Fe","Type_of_glass"))

Rows: 214 Columns: 11
── Column specification ────────────────────────────────────────────────────────
Delimiter: ","
dbl (11): Id, RI, Na, Mg, Al, Si, K, Ca, Ba, Fe, Type_of_glass

ℹ Use `spec()` to retrieve the full column specification for this data.
ℹ Specify the column types or set `show_col_types = FALSE` to quiet this message.

glass

# A tibble: 214 × 11
      Id    RI    Na    Mg    Al    Si     K    Ca    Ba    Fe Type_of_glass
   <dbl> <dbl> <dbl> <dbl> <dbl> <dbl> <dbl> <dbl> <dbl> <dbl>         <dbl>
 1     1  1.52  13.6  4.49  1.1   71.8  0.06  8.75     0  0                1
 2     2  1.52  13.9  3.6   1.36  72.7  0.48  7.83     0  0                1
 3     3  1.52  13.5  3.55  1.54  73.0  0.39  7.78     0  0                1
 4     4  1.52  13.2  3.69  1.29  72.6  0.57  8.22     0  0                1
 5     5  1.52  13.3  3.62  1.24  73.1  0.55  8.07     0  0                1
 6     6  1.52  12.8  3.61  1.62  73.0  0.64  8.07     0  0.26             1
 7     7  1.52  13.3  3.6   1.14  73.1  0.58  8.17     0  0                1
 8     8  1.52  13.2  3.61  1.05  73.2  0.57  8.24     0  0                1
 9     9  1.52  14.0  3.58  1.37  72.1  0.56  8.3      0  0                1
10    10  1.52  13    3.6   1.36  73.0  0.57  8.4      0  0.11             1
# ℹ 204 more rows
…
Rows: 1484 Columns: 10
── Column specification ────────────────────────────────────────────────────────
Delimiter: "  "
chr (2): seq_name, class
dbl (8): mcg, gvh, alm, mit, erl, pox, vac, nuc

ℹ Use `spec()` to retrieve the full column specification for this data.
ℹ Specify the column types or set `show_col_types = FALSE` to quiet this message.

yeast

# A tibble: 1,484 × 10
   seq_name     mcg   gvh   alm   mit   erl   pox   vac   nuc class
   <chr>      <dbl> <dbl> <dbl> <dbl> <dbl> <dbl> <dbl> <dbl> <chr>
 1 ADT1_YEAST  0.58  0.61  0.47  0.13   0.5   0    0.48  0.22 MIT  
 2 ADT2_YEAST  0.43  0.67  0.48  0.27   0.5   0    0.53  0.22 MIT  
 3 ADT3_YEAST  0.64  0.62  0.49  0.15   0.5   0    0.53  0.22 MIT  
 4 AAR2_YEAST  0.58  0.44  0.57  0.13   0.5   0    0.54  0.22 NUC  
 5 AATM_YEAST  0.42  0.44  0.48  0.54   0.5   0    0.48  0.22 MIT  
 6 AATC_YEAST  0.51  0.4   0.56  0.17   0.5   0.5  0.49  0.22 CYT  
 7 ABC1_YEAST  0.5   0.54  0.48  0.65   0.5   0    0.53  0.22 MIT  
 8 BAF1_YEAST  0.48  0.45  0.59  0.2    0.5   0    0.58  0.34 NUC  
 9 ABF2_YEAST  0.55  0.5   0.66  0.36   0.5   0    0.49  0.22 MIT  
10 ABP1_YEAST  0.4   0.39  0.6   0.15   0.5   0    0.58  0.3  CYT  
# ℹ 1,474 more rows

Adjust the data as needed.

yeast |> 
  select(mcg:vac,class) |>
  group_by(class) |>
  mutate(across(where(is.numeric),list(mean=mean,median=median),.names = "{.col}.{.fn}"))

# A tibble: 1,484 × 22
# Groups:   class [44]
     mcg   gvh   alm   mit   erl   pox   vac class mcg.mean mcg.median gvh.mean
   <dbl> <dbl> <dbl> <dbl> <dbl> <dbl> <dbl> <chr>    <dbl>      <dbl>    <dbl>
 1  0.58  0.61  0.47  0.13   0.5   0    0.48 MIT      0.521       0.51    0.531
 2  0.43  0.67  0.48  0.27   0.5   0    0.53 MIT      0.521       0.51    0.531
 3  0.64  0.62  0.49  0.15   0.5   0    0.53 MIT      0.521       0.51    0.531
 4  0.58  0.44  0.57  0.13   0.5   0    0.54 NUC      0.453       0.45    0.458
 5  0.42  0.44  0.48  0.54   0.5   0    0.48 MIT      0.521       0.51    0.531
 6  0.51  0.4   0.56  0.17   0.5   0.5  0.49 CYT      0.480       0.48    0.469
 7  0.5   0.54  0.48  0.65   0.5   0    0.53 MIT      0.521       0.51    0.531
 8  0.48  0.45  0.59  0.2    0.5   0    0.58 NUC      0.453       0.45    0.458
 9  0.55  0.5   0.66  0.36   0.5   0    0.49 MIT      0.521       0.51    0.531
10  0.4   0.39  0.6   0.15   0.5   0    0.58 CYT      0.480       0.48    0.469
# ℹ 1,474 more rows
# ℹ 11 more variables: gvh.median <dbl>, alm.mean <dbl>, alm.median <dbl>,
#   mit.mean <dbl>, mit.median <dbl>, erl.mean <dbl>, erl.median <dbl>,
#   pox.mean <dbl>, pox.median <dbl>, vac.mean <dbl>, vac.median <dbl>

Combining Excel and Delimited Data

Read in our white wine data, rename the variables, and add a column indicating wine type.

white_wine <- read_excel("white-wine.xlsx",sheet = excel_sheets("white-wine.xlsx")[1])
white_wine

# A tibble: 4,898 × 12
   `fixed acidity` `volatile acidity` `citric acid` `residual sugar` chlorides
             <dbl>              <dbl>         <dbl>            <dbl>     <dbl>
 1               7               0.27          0.36             20.7     0.045
 2              63               0.3           0.34              1.6     0.049
 3              81               0.28          0.4               6.9     0.05 
 4              72               0.23          0.32              8.5     0.058
 5              72               0.23          0.32              8.5     0.058
 6              81               0.28          0.4               6.9     0.05 
 7              62               0.32          0.16              7       0.045
 8               7               0.27          0.36             20.7     0.045
 9              63               0.3           0.34              1.6     0.049
10              81               0.22          0.43              1.5     0.044
# ℹ 4,888 more rows
# ℹ 7 more variables: `free sulfur dioxide` <dbl>,
#   `total sulfur dioxide` <dbl>, density <dbl>, pH <dbl>, sulphates <dbl>,
#   alcohol <dbl>, quality <dbl>
…
colnames(red_wine) <- white_wine_vars$Variables
red_wine2 <- red_wine |> 
  mutate(type = "Red")

Combine the wine data sets together as perform our needed data transformations.

wine <- bind_rows(white_wine2, red_wine2)
wine |>
  filter(quality>6.5,alcohol<132) |>
  arrange(desc(quality)) |>
  select(contains("acid"),alcohol,type,quality) |>
  group_by(quality) |>
  mutate(across(alcohol,list(mean=mean,sd=sd),.names = "{.col}.{.fn}"))

# A tibble: 1,206 × 8
# Groups:   quality [3]
   fixed_acidity volatile_acidity citric_acid alcohol type  quality alcohol.mean
           <dbl>            <dbl>       <dbl>   <dbl> <chr>   <dbl>        <dbl>
 1            91             0.27        0.45     104 White       9        122. 
 2            66             0.36        0.29     124 White       9        122. 
 3            74             0.24        0.36     125 White       9        122. 
 4            69             0.36        0.34     127 White       9        122. 
 5            71             0.26        0.49     129 White       9        122. 
 6            62             0.66        0.48     128 White       8         94.1
 7            62             0.66        0.48     128 White       8         94.1
 8            68             0.26        0.42     105 White       8         94.1
 9            67             0.23        0.31     107 White       8         94.1
10            67             0.23        0.31     107 White       8         94.1
# ℹ 1,196 more rows
# ℹ 1 more variable: alcohol.sd <dbl>
…
Collect the list of managers and calculate W/L records.

tbl(con, sql(
  "SELECT `playerID`, `G`, `W`, `L`
  FROM Managers")) |>
  group_by(playerID) |>
  summarize(G_managed = sum(G, na.rm = TRUE),
  Total_W = sum(W, na.rm = TRUE),
  Total_L = sum(L, na.rm = TRUE)) |>
  collect() |>
  mutate(Total_W_G_managed = Total_W/(Total_W+Total_L)) |>
  arrange(desc(Total_W_G_managed))

# A tibble: 749 × 5
   playerID  G_managed Total_W Total_L Total_W_G_managed
   <chr>         <int>   <int>   <int>             <dbl>
 1 bensove01         1       1       0                 1
 2 burwebi01         1       1       0                 1
 3 cohenan01         1       1       0                 1
 4 ebeldi99          3       3       0                 1
 5 falkbi01          1       1       0                 1
 6 hardeme01         3       3       0                 1
 7 simmote01         1       1       0                 1
 8 steinte01         2       2       0                 1
 9 sukefcl01         2       2       0                 1
10 tamarjo01         1       1       0                 1
# ℹ 739 more rows
…
BestPlayerManagers <- a |>
  inner_join(b, by=join_by(playerID)) |>
  arrange(desc(Total_W_G_managed))

BestPlayerManagers

# A tibble: 97 × 9
   playerID  yearID category        nameFirst nameLast G_managed Total_W Total_L
   <chr>      <int> <chr>           <chr>     <chr>        <int>   <int>   <int>
 1 simmote01   2020 Player          Ted       Simmons          1       1       0
 2 wrighge01   1937 Pioneer/Execut… George    Wright          85      59      25
 3 spaldal01   1939 Pioneer/Execut… Al        Spalding       126      78      47
 4 mccarjo99   1957 Manager         Joe       McCarthy      3487    2125    1333
 5 comisch01   1939 Pioneer/Execut… Charlie   Comiskey      1410     840     541
 6 seleefr99   1999 Manager         Frank     Selee         2180    1284     862
 7 southbi01   2008 Manager         Billy     Southwo…      1770    1044     704
 8 chancfr01   1946 Player          Frank     Chance        1622     946     648
 9 mcgrajo01   1937 Manager         John      McGraw        4769    2763    1948
10 lopezal01   1977 Manager         Al        Lopez         2425    1410    1004
# ℹ 87 more rows
# ℹ 1 more variable: Total_W_G_managed <dbl>
